<svg xmlns="http://www.w3.org/2000/svg" width="12.926" height="7.463" viewBox="0 0 12.926 7.463">
  <path id="Path_44976" data-name="Path 44976" d="M40.962,185.425a1,1,0,0,1-.707-.293l-5.463-5.463a1,1,0,0,1,0-1.414l5.463-5.463a1,1,0,1,1,1.414,1.414l-4.756,4.756,4.756,4.756a1,1,0,0,1-.707,1.707Z" transform="translate(-172.499 41.962) rotate(-90)" fill="#fff"/>
</svg>
