<svg xmlns="http://www.w3.org/2000/svg" width="29.079" height="47.156" viewBox="0 0 29.079 47.156">
  <path id="path" d="M332.779,880.5,314.7,898.578l18.076,18.076-5.5,5.5L303.7,898.578,327.278,875Z" transform="translate(-303.7 -875)" fill="#4b4b4b"/>
</svg>
