<svg xmlns="http://www.w3.org/2000/svg" width="17.354" height="12.134" viewBox="0 0 17.354 12.134">
  <g id="arrow" transform="translate(0.75)">
    <g id="Rounded" transform="translate(16.604 12.134) rotate(-180)">
      <path id="Path_6" data-name="Path 6" d="M6.707.238h0a.808.808,0,0,0-1.145,0L.189,5.611a.644.644,0,0,0,0,.912L5.563,11.9a.808.808,0,0,0,1.145,0h0a.808.808,0,0,0,0-1.145L2.026,6.064,6.714,1.376A.806.806,0,0,0,6.707.238Z" fill="#fff"/>
    </g>
    <path id="Line_3" data-name="Line 3" d="M15.134.75H0A.75.75,0,0,1-.75,0,.75.75,0,0,1,0-.75H15.134a.75.75,0,0,1,.75.75A.75.75,0,0,1,15.134.75Z" transform="translate(15.134 5.958) rotate(-180)" fill="#fff"/>
  </g>
</svg>
