<svg xmlns="http://www.w3.org/2000/svg" width="44" height="44.01" viewBox="0 0 44 44.01">
  <g id="Group_27137" data-name="Group 27137" transform="translate(-957.641 -691.416)">
    <g id="Group_27135" data-name="Group 27135" transform="translate(972.575 706.351)">
      <g id="Group_27133" data-name="Group 27133">
        <path id="Path_17974" data-name="Path 17974" d="M967.5,713.551a1.869,1.869,0,0,1-1.321-3.19l10.4-10.406a1.868,1.868,0,0,1,2.642,2.642L968.823,713a1.867,1.867,0,0,1-1.321.547Z" transform="translate(-965.633 -699.408)" fill="#fff"/>
      </g>
      <g id="Group_27134" data-name="Group 27134">
        <path id="Path_17975" data-name="Path 17975" d="M977.906,713.551a1.863,1.863,0,0,1-1.321-.547l-10.4-10.406a1.868,1.868,0,0,1,2.642-2.642l10.4,10.406a1.869,1.869,0,0,1-1.321,3.19Z" transform="translate(-965.633 -699.408)" fill="#fff"/>
      </g>
    </g>
    <g id="Group_27136" data-name="Group 27136" transform="translate(957.641 691.416)">
      <path id="Path_17976" data-name="Path 17976" d="M979.641,735.426a22.006,22.006,0,1,1,15.566-6.445,21.864,21.864,0,0,1-15.566,6.445Zm0-40.273a18.267,18.267,0,1,0,12.92,5.348,18.153,18.153,0,0,0-12.92-5.348Z" transform="translate(-957.641 -691.416)" fill="#fff"/>
    </g>
  </g>
</svg>
