<svg xmlns="http://www.w3.org/2000/svg" width="22.556" height="21.055" viewBox="0 0 22.556 21.055">
  <g id="Group_29006" data-name="Group 29006" transform="translate(-1448.424 -1064.078)">
    <g id="Group_29004" data-name="Group 29004">
      <path id="Path_44809" data-name="Path 44809" d="M1469.98,1085.133h-20.529a1,1,0,0,1-1-1v-18.055a2,2,0,0,1,2-2h7a2,2,0,0,1,2,2v.723h10.529a1,1,0,0,1,1,1v16.332a1,1,0,0,1-1,1Zm-19.529-2h18.529V1068.8h-10.529a1,1,0,0,1-1-1v-1.723h-7v17.055Z" fill="#fff"/>
    </g>
    <g id="Group_29005" data-name="Group 29005">
      <path id="Path_44810" data-name="Path 44810" d="M1469.924,1072.536h-20.5a1,1,0,0,1,0-2h20.5a1,1,0,0,1,0,2Z" fill="#fff"/>
    </g>
  </g>
</svg>
