<svg xmlns="http://www.w3.org/2000/svg" width="64" height="55.164" viewBox="0 0 64 55.164">
  <g id="Group_28907" data-name="Group 28907" transform="translate(-98.994 -1001.259)">
    <g id="Group_28898" data-name="Group 28898" transform="translate(100.725 1001.259)">
      <path id="Path_44576" data-name="Path 44576" d="M157.815,1025.157H102.133a2.425,2.425,0,0,1-1.369-4.428l27.842-19.046a2.424,2.424,0,0,1,2.74,0l27.84,19.046a2.426,2.426,0,0,1-1.371,4.428ZM109.98,1020.3h39.992l-19.995-13.678-20,13.678Z" transform="translate(-99.708 -1001.259)" fill="#453202"/>
    </g>
    <g id="Group_28904" data-name="Group 28904" transform="translate(107.739 1021.239)">
      <g id="Group_28899" data-name="Group 28899">
        <path id="Path_44577" data-name="Path 44577" d="M105.025,1037.4a2.424,2.424,0,0,1-2.427-2.427v-23.052a2.427,2.427,0,0,1,4.853,0v23.052a2.426,2.426,0,0,1-2.427,2.427Z" transform="translate(-102.598 -1009.493)" fill="#453202"/>
      </g>
      <g id="Group_28900" data-name="Group 28900" transform="translate(41.654)">
        <path id="Path_44578" data-name="Path 44578" d="M122.191,1037.4a2.424,2.424,0,0,1-2.427-2.427v-23.052a2.427,2.427,0,0,1,4.853,0v23.052a2.426,2.426,0,0,1-2.427,2.427Z" transform="translate(-119.764 -1009.493)" fill="#453202"/>
      </g>
      <g id="Group_28901" data-name="Group 28901" transform="translate(10.412)">
        <path id="Path_44579" data-name="Path 44579" d="M109.316,1037.4a2.424,2.424,0,0,1-2.427-2.427v-23.052a2.427,2.427,0,0,1,4.853,0v23.052a2.426,2.426,0,0,1-2.427,2.427Z" transform="translate(-106.889 -1009.493)" fill="#453202"/>
      </g>
      <g id="Group_28902" data-name="Group 28902" transform="translate(20.829)">
        <path id="Path_44580" data-name="Path 44580" d="M113.609,1037.4a2.424,2.424,0,0,1-2.427-2.427v-23.052a2.427,2.427,0,0,1,4.853,0v23.052a2.426,2.426,0,0,1-2.427,2.427Z" transform="translate(-111.182 -1009.493)" fill="#453202"/>
      </g>
      <g id="Group_28903" data-name="Group 28903" transform="translate(31.242)">
        <path id="Path_44581" data-name="Path 44581" d="M117.9,1037.4a2.424,2.424,0,0,1-2.427-2.427v-23.052a2.427,2.427,0,0,1,4.853,0v23.052a2.426,2.426,0,0,1-2.427,2.427Z" transform="translate(-115.473 -1009.493)" fill="#453202"/>
      </g>
    </g>
    <g id="Group_28905" data-name="Group 28905" transform="translate(103.847 1044.594)">
      <path id="Path_44582" data-name="Path 44582" d="M152.861,1023.971H103.421a2.427,2.427,0,1,1,0-4.853h49.441a2.427,2.427,0,1,1,0,4.853Z" transform="translate(-100.994 -1019.118)" fill="#453202"/>
    </g>
    <g id="Group_28906" data-name="Group 28906" transform="translate(98.994 1051.571)">
      <path id="Path_44583" data-name="Path 44583" d="M160.568,1026.846H101.421a2.427,2.427,0,1,1,0-4.853h59.147a2.427,2.427,0,1,1,0,4.853Z" transform="translate(-98.994 -1021.993)" fill="#453202"/>
    </g>
  </g>
</svg>
