<svg xmlns="http://www.w3.org/2000/svg" xmlns:xlink="http://www.w3.org/1999/xlink" width="24.477" height="19.426" viewBox="0 0 24.477 19.426">
  <defs>
    <clipPath id="clip-path">
      <rect id="Rectangle_3879" data-name="Rectangle 3879" width="24.477" height="19.426" fill="#9b9b9b"/>
    </clipPath>
  </defs>
  <g id="Group_27130" data-name="Group 27130" transform="translate(-1145.827 -1837.921)">
    <g id="Group_27129" data-name="Group 27129" transform="translate(1145.827 1837.921)">
      <g id="Group_27128" data-name="Group 27128" transform="translate(0 0)" clip-path="url(#clip-path)">
        <path id="Path_19085" data-name="Path 19085" d="M1667.88,2415.6l-8.667,7.146a.174.174,0,0,1-.007.045.25.25,0,0,0-.007.045v7.235a.979.979,0,0,0,.964.965h5.789v-5.789h3.859v5.789h5.788a.979.979,0,0,0,.965-.965v-7.235a.213.213,0,0,0-.015-.09Zm0,0" transform="translate(-1655.73 -2411.698)" fill="#9b9b9b"/>
        <path id="Path_19086" data-name="Path 19086" d="M1169.991,1847.342l-3.3-2.743v-6.15a.464.464,0,0,0-.483-.482h-2.894a.464.464,0,0,0-.482.482v2.94l-3.677-3.075a1.869,1.869,0,0,0-2.291,0l-10.839,9.029a.437.437,0,0,0-.165.323.492.492,0,0,0,.106.355l.934,1.115a.513.513,0,0,0,.316.166.56.56,0,0,0,.362-.106l10.43-8.7,10.431,8.7a.462.462,0,0,0,.316.106h.046a.515.515,0,0,0,.316-.166l.935-1.116a.487.487,0,0,0,.1-.354.437.437,0,0,0-.166-.323Zm0,0" transform="translate(-1145.857 -1837.921)" fill="#9b9b9b"/>
      </g>
    </g>
  </g>
</svg>
