<svg xmlns="http://www.w3.org/2000/svg" width="51.72" height="68.614" viewBox="0 0 51.72 68.614">
  <g id="Group_28872" data-name="Group 28872" transform="translate(-715.297 -1124.092)">
    <g id="Group_28866" data-name="Group 28866" transform="translate(715.297 1124.092)">
      <g id="Group_28864" data-name="Group 28864" transform="translate(0 7.146)">
        <path id="Path_44550" data-name="Path 44550" d="M760.649,1188.117h-38.98a6.381,6.381,0,0,1-6.371-6.371v-52.3a2.8,2.8,0,0,1,5.591,0v52.3a.78.78,0,0,0,.78.78h38.98a.767.767,0,0,0,.777-.78v-44.177a.776.776,0,0,0-.777-.78,2.8,2.8,0,0,1,0-5.591,6.378,6.378,0,0,1,6.369,6.371v44.177a6.378,6.378,0,0,1-6.369,6.371Z" transform="translate(-715.297 -1126.648)" fill="#fff"/>
      </g>
      <g id="Group_28865" data-name="Group 28865">
        <path id="Path_44551" data-name="Path 44551" d="M760.109,1141.375H723.941a8.642,8.642,0,1,1,0-17.283h40.28a2.8,2.8,0,0,1,0,5.591h-40.28a3.05,3.05,0,1,0,0,6.1h36.168a2.8,2.8,0,0,1,0,5.591Z" transform="translate(-715.297 -1124.092)" fill="#fff"/>
      </g>
    </g>
    <g id="Group_28867" data-name="Group 28867" transform="translate(733.19 1147.447)">
      <path id="Path_44552" data-name="Path 44552" d="M729.67,1149.961c-4.395,0-7.973-3.928-7.973-8.756s3.578-8.759,7.973-8.759,7.965,3.931,7.965,8.759-3.57,8.756-7.965,8.756Zm0-11.924c-1.289,0-2.382,1.451-2.382,3.168s1.093,3.165,2.382,3.165,2.374-1.451,2.374-3.165-1.085-3.168-2.374-3.168Z" transform="translate(-721.697 -1132.446)" fill="#fff"/>
    </g>
    <g id="Group_28868" data-name="Group 28868" transform="translate(727.958 1163.963)">
      <path id="Path_44553" data-name="Path 44553" d="M742.983,1156.21H723.07a2.793,2.793,0,0,1-2.785-2.594l-.447-6.436a7.908,7.908,0,0,1,4.948-7.4,24.506,24.506,0,0,1,16.461-.011,7.862,7.862,0,0,1,4.965,7.423l-.439,6.413a2.794,2.794,0,0,1-2.79,2.6Zm-17.3-5.591h14.694l.257-3.816a2.371,2.371,0,0,0-1.294-1.775,18.937,18.937,0,0,0-12.637.008,2.406,2.406,0,0,0-1.283,1.773l.263,3.81Z" transform="translate(-719.826 -1138.354)" fill="#fff"/>
    </g>
  </g>
</svg>
