<svg xmlns="http://www.w3.org/2000/svg" width="12.172" height="12.171" viewBox="0 0 12.172 12.171">
  <g id="Group_28560" data-name="Group 28560" transform="translate(-12.934 -12.935)">
    <g id="Icon_feather-search" data-name="Icon feather-search" transform="translate(13.935 13.935)">
      <path id="Path_3181" data-name="Path 3181" d="M9.021,3.5h0A5.521,5.521,0,1,1,3.5,9.021,5.527,5.527,0,0,1,9.021,3.5Zm0,9.041a3.521,3.521,0,0,0,0-7.041h0a3.521,3.521,0,0,0,0,7.041Z" transform="translate(-4.5 -4.5)" fill="#fff"/>
      <path id="Path_3182" data-name="Path 3182" d="M27.433,28.433a1,1,0,0,1-.707-.293l-2.458-2.458a1,1,0,0,1,1.414-1.414l2.458,2.458a1,1,0,0,1-.707,1.707Z" transform="translate(-17.262 -17.262)" fill="#fff"/>
    </g>
  </g>
</svg>
