<svg xmlns="http://www.w3.org/2000/svg" width="79" height="79" viewBox="0 0 79 79">
  <g id="Group_28933" data-name="Group 28933" transform="translate(-1308.328 -4724.328)">
    <path id="Ellipse_32" data-name="Ellipse 32" d="M39.5,3A36.51,36.51,0,0,0,25.293,73.133,36.51,36.51,0,0,0,53.707,5.867,36.269,36.269,0,0,0,39.5,3m0-3A39.5,39.5,0,1,1,0,39.5,39.5,39.5,0,0,1,39.5,0Z" transform="translate(1308.328 4724.328)" fill="#fff"/>
    <path id="Polygon_2" data-name="Polygon 2" d="M19.49,0,38.98,27.117H0Z" transform="translate(1367.6 4745.185) rotate(90)" fill="#fff"/>
  </g>
</svg>
